%YAML 1.1
%TAG !u! tag:unity3d.com,2011:
--- !u!74 &7400000
AnimationClip:
  m_ObjectHideFlags: 0
  m_PrefabParentObject: {fileID: 0}
  m_PrefabInternal: {fileID: 0}
  m_Name: telefon
  serializedVersion: 6
  m_Legacy: 0
  m_Compressed: 0
  m_UseHighQualityCurve: 1
  m_RotationCurves: []
  m_CompressedRotationCurves: []
  m_EulerCurves: []
  m_PositionCurves: []
  m_ScaleCurves: []
  m_FloatCurves: []
  m_PPtrCurves:
  - curve:
    - time: 0
      value: {fileID: 21300094, guid: 0381f3d8fdf4bac488ba1f06506a8f8f, type: 3}
    - time: 0.033333335
      value: {fileID: 21300096, guid: 0381f3d8fdf4bac488ba1f06506a8f8f, type: 3}
    - time: 0.06666667
      value: {fileID: 21300098, guid: 0381f3d8fdf4bac488ba1f06506a8f8f, type: 3}
    - time: 0.1
      value: {fileID: 21300100, guid: 0381f3d8fdf4bac488ba1f06506a8f8f, type: 3}
    - time: 0.13333334
      value: {fileID: 21300102, guid: 0381f3d8fdf4bac488ba1f06506a8f8f, type: 3}
    - time: 0.16666667
      value: {fileID: 21300104, guid: 0381f3d8fdf4bac488ba1f06506a8f8f, type: 3}
    - time: 0.2
      value: {fileID: 21300106, guid: 0381f3d8fdf4bac488ba1f06506a8f8f, type: 3}
    - time: 0.23333333
      value: {fileID: 21300108, guid: 0381f3d8fdf4bac488ba1f06506a8f8f, type: 3}
    - time: 0.26666668
      value: {fileID: 21300110, guid: 0381f3d8fdf4bac488ba1f06506a8f8f, type: 3}
    - time: 0.3
      value: {fileID: 21300112, guid: 0381f3d8fdf4bac488ba1f06506a8f8f, type: 3}
    - time: 0.33333334
      value: {fileID: 21300114, guid: 0381f3d8fdf4bac488ba1f06506a8f8f, type: 3}
    - time: 0.36666667
      value: {fileID: 21300116, guid: 0381f3d8fdf4bac488ba1f06506a8f8f, type: 3}
    - time: 0.4
      value: {fileID: 21300118, guid: 0381f3d8fdf4bac488ba1f06506a8f8f, type: 3}
    - time: 0.43333334
      value: {fileID: 21300120, guid: 0381f3d8fdf4bac488ba1f06506a8f8f, type: 3}
    - time: 0.46666667
      value: {fileID: 21300122, guid: 0381f3d8fdf4bac488ba1f06506a8f8f, type: 3}
    - time: 0.5
      value: {fileID: 21300124, guid: 0381f3d8fdf4bac488ba1f06506a8f8f, type: 3}
    - time: 0.53333336
      value: {fileID: 21300126, guid: 0381f3d8fdf4bac488ba1f06506a8f8f, type: 3}
    - time: 0.56666666
      value: {fileID: 21300128, guid: 0381f3d8fdf4bac488ba1f06506a8f8f, type: 3}
    - time: 0.6
      value: {fileID: 21300130, guid: 0381f3d8fdf4bac488ba1f06506a8f8f, type: 3}
    - time: 0.6333333
      value: {fileID: 21300132, guid: 0381f3d8fdf4bac488ba1f06506a8f8f, type: 3}
    - time: 0.6666667
      value: {fileID: 21300134, guid: 0381f3d8fdf4bac488ba1f06506a8f8f, type: 3}
    - time: 0.7
      value: {fileID: 21300136, guid: 0381f3d8fdf4bac488ba1f06506a8f8f, type: 3}
    - time: 0.73333335
      value: {fileID: 21300138, guid: 0381f3d8fdf4bac488ba1f06506a8f8f, type: 3}
    - time: 0.76666665
      value: {fileID: 21300140, guid: 0381f3d8fdf4bac488ba1f06506a8f8f, type: 3}
    - time: 0.8
      value: {fileID: 21300142, guid: 0381f3d8fdf4bac488ba1f06506a8f8f, type: 3}
    - time: 0.8333333
      value: {fileID: 21300144, guid: 0381f3d8fdf4bac488ba1f06506a8f8f, type: 3}
    - time: 0.8666667
      value: {fileID: 21300146, guid: 0381f3d8fdf4bac488ba1f06506a8f8f, type: 3}
    - time: 0.9
      value: {fileID: 21300148, guid: 0381f3d8fdf4bac488ba1f06506a8f8f, type: 3}
    - time: 0.93333334
      value: {fileID: 21300150, guid: 0381f3d8fdf4bac488ba1f06506a8f8f, type: 3}
    - time: 0.96666664
      value: {fileID: 21300152, guid: 0381f3d8fdf4bac488ba1f06506a8f8f, type: 3}
    - time: 1
      value: {fileID: 21300154, guid: 0381f3d8fdf4bac488ba1f06506a8f8f, type: 3}
    attribute: m_Sprite
    path: 
    classID: 212
    script: {fileID: 0}
  m_SampleRate: 30
  m_WrapMode: 0
  m_Bounds:
    m_Center: {x: 0, y: 0, z: 0}
    m_Extent: {x: 0, y: 0, z: 0}
  m_ClipBindingConstant:
    genericBindings:
    - serializedVersion: 2
      path: 0
      attribute: 0
      script: {fileID: 0}
      typeID: 212
      customType: 23
      isPPtrCurve: 1
    pptrCurveMapping:
    - {fileID: 21300094, guid: 0381f3d8fdf4bac488ba1f06506a8f8f, type: 3}
    - {fileID: 21300096, guid: 0381f3d8fdf4bac488ba1f06506a8f8f, type: 3}
    - {fileID: 21300098, guid: 0381f3d8fdf4bac488ba1f06506a8f8f, type: 3}
    - {fileID: 21300100, guid: 0381f3d8fdf4bac488ba1f06506a8f8f, type: 3}
    - {fileID: 21300102, guid: 0381f3d8fdf4bac488ba1f06506a8f8f, type: 3}
    - {fileID: 21300104, guid: 0381f3d8fdf4bac488ba1f06506a8f8f, type: 3}
    - {fileID: 21300106, guid: 0381f3d8fdf4bac488ba1f06506a8f8f, type: 3}
    - {fileID: 21300108, guid: 0381f3d8fdf4bac488ba1f06506a8f8f, type: 3}
    - {fileID: 21300110, guid: 0381f3d8fdf4bac488ba1f06506a8f8f, type: 3}
    - {fileID: 21300112, guid: 0381f3d8fdf4bac488ba1f06506a8f8f, type: 3}
    - {fileID: 21300114, guid: 0381f3d8fdf4bac488ba1f06506a8f8f, type: 3}
    - {fileID: 21300116, guid: 0381f3d8fdf4bac488ba1f06506a8f8f, type: 3}
    - {fileID: 21300118, guid: 0381f3d8fdf4bac488ba1f06506a8f8f, type: 3}
    - {fileID: 21300120, guid: 0381f3d8fdf4bac488ba1f06506a8f8f, type: 3}
    - {fileID: 21300122, guid: 0381f3d8fdf4bac488ba1f06506a8f8f, type: 3}
    - {fileID: 21300124, guid: 0381f3d8fdf4bac488ba1f06506a8f8f, type: 3}
    - {fileID: 21300126, guid: 0381f3d8fdf4bac488ba1f06506a8f8f, type: 3}
    - {fileID: 21300128, guid: 0381f3d8fdf4bac488ba1f06506a8f8f, type: 3}
    - {fileID: 21300130, guid: 0381f3d8fdf4bac488ba1f06506a8f8f, type: 3}
    - {fileID: 21300132, guid: 0381f3d8fdf4bac488ba1f06506a8f8f, type: 3}
    - {fileID: 21300134, guid: 0381f3d8fdf4bac488ba1f06506a8f8f, type: 3}
    - {fileID: 21300136, guid: 0381f3d8fdf4bac488ba1f06506a8f8f, type: 3}
    - {fileID: 21300138, guid: 0381f3d8fdf4bac488ba1f06506a8f8f, type: 3}
    - {fileID: 21300140, guid: 0381f3d8fdf4bac488ba1f06506a8f8f, type: 3}
    - {fileID: 21300142, guid: 0381f3d8fdf4bac488ba1f06506a8f8f, type: 3}
    - {fileID: 21300144, guid: 0381f3d8fdf4bac488ba1f06506a8f8f, type: 3}
    - {fileID: 21300146, guid: 0381f3d8fdf4bac488ba1f06506a8f8f, type: 3}
    - {fileID: 21300148, guid: 0381f3d8fdf4bac488ba1f06506a8f8f, type: 3}
    - {fileID: 21300150, guid: 0381f3d8fdf4bac488ba1f06506a8f8f, type: 3}
    - {fileID: 21300152, guid: 0381f3d8fdf4bac488ba1f06506a8f8f, type: 3}
    - {fileID: 21300154, guid: 0381f3d8fdf4bac488ba1f06506a8f8f, type: 3}
  m_AnimationClipSettings:
    serializedVersion: 2
    m_AdditiveReferencePoseClip: {fileID: 0}
    m_AdditiveReferencePoseTime: 0
    m_StartTime: 0
    m_StopTime: 1.0333333
    m_OrientationOffsetY: 0
    m_Level: 0
    m_CycleOffset: 0
    m_HasAdditiveReferencePose: 0
    m_LoopTime: 1
    m_LoopBlend: 0
    m_LoopBlendOrientation: 0
    m_LoopBlendPositionY: 0
    m_LoopBlendPositionXZ: 0
    m_KeepOriginalOrientation: 0
    m_KeepOriginalPositionY: 1
    m_KeepOriginalPositionXZ: 0
    m_HeightFromFeet: 0
    m_Mirror: 0
  m_EditorCurves: []
  m_EulerEditorCurves: []
  m_HasGenericRootTransform: 0
  m_HasMotionFloatCurves: 0
  m_GenerateMotionCurves: 0
  m_Events: []
